{
	"info": {
		"_postman_id": "efe91382-7b58-4670-a505-f9a595025a6a",
		"name": "CourseBookingAPI",
		"schema": "https://schema.getpostman.com/json/collection/v2.1.0/collection.json",
		"_exporter_id": "27193782"
	},
	"item": [
		{
			"name": "POST userRegistration",
			"request": {
				"method": "POST",
				"header": [],
				"body": {
					"mode": "raw",
					"raw": "{\r\n    \"firstName\" : \"test10\",\r\n    \"lastName\" : \"test10\",\r\n    \"email\" : \"test10@mail.com\",\r\n    \"password\" : \"1234\",\r\n    \"mobileNo\" : \"03123456789\"\r\n}",
					"options": {
						"raw": {
							"language": "json"
						}
					}
				},
				"url": {
					"raw": "localhost:4001/users/register",
					"host": [
						"localhost"
					],
					"port": "4001",
					"path": [
						"users",
						"register"
					]
				}
			},
			"response": []
		},
		{
			"name": "GET loginUser",
			"protocolProfileBehavior": {
				"disableBodyPruning": true
			},
			"request": {
				"method": "GET",
				"header": [],
				"body": {
					"mode": "raw",
					"raw": "{\r\n    \"email\" : \"admin@mail.com\",\r\n    \"password\" : \"1234\"\r\n}",
					"options": {
						"raw": {
							"language": "json"
						}
					}
				},
				"url": {
					"raw": "localhost:4001/users/login",
					"host": [
						"localhost"
					],
					"port": "4001",
					"path": [
						"users",
						"login"
					]
				}
			},
			"response": []
		},
		{
			"name": "GET getProfile",
			"protocolProfileBehavior": {
				"disableBodyPruning": true
			},
			"request": {
				"auth": {
					"type": "bearer",
					"bearer": [
						{
							"key": "token",
							"value": "eyJhbGciOiJIUzI1NiIsInR5cCI6IkpXVCJ9.eyJpZCI6IjY0Nzk3ZDA0ZjliZWM4NTdkMTM5MmRkYyIsImlzQWRtaW4iOnRydWUsImVtYWlsIjoiYWRtaW5AbWFpbC5jb20iLCJpYXQiOjE2ODU2ODU1MTd9.FWFWEa5yVeqhmwA9362Mlbj2lHl9NEH8u7EPsz1DwDw",
							"type": "string"
						}
					]
				},
				"method": "GET",
				"header": [],
				"body": {
					"mode": "raw",
					"raw": "{\r\n    \"id\" : \"6478542d719334a02c5950df\"\r\n}",
					"options": {
						"raw": {
							"language": "json"
						}
					}
				},
				"url": {
					"raw": "localhost:4001/users/details",
					"host": [
						"localhost"
					],
					"port": "4001",
					"path": [
						"users",
						"details"
					]
				}
			},
			"response": []
		},
		{
			"name": "GET verify",
			"request": {
				"auth": {
					"type": "noauth"
				},
				"method": "GET",
				"header": [],
				"url": {
					"raw": "localhost:4001/users/verify",
					"host": [
						"localhost"
					],
					"port": "4001",
					"path": [
						"users",
						"verify"
					]
				}
			},
			"response": []
		},
		{
			"name": "addCourse",
			"request": {
				"auth": {
					"type": "bearer",
					"bearer": [
						{
							"key": "token",
							"value": "eyJhbGciOiJIUzI1NiIsInR5cCI6IkpXVCJ9.eyJpZCI6IjY0Nzk3ZDA0ZjliZWM4NTdkMTM5MmRkYyIsImlzQWRtaW4iOnRydWUsImVtYWlsIjoiYWRtaW5AbWFpbC5jb20iLCJpYXQiOjE2ODU3MDE5MTF9.KVDwPKGW0iYM9ktu8boK5rkYT7mJ3hwL6DrXIePimGc",
							"type": "string"
						}
					]
				},
				"method": "POST",
				"header": [],
				"body": {
					"mode": "raw",
					"raw": "{\r\n    \"name\" : \"CSS\",\r\n    \"description\" : \"Let's make our websites look cooler\",\r\n    \"price\" : 500,\r\n    \"isActive\" : true,\r\n    \"slots\" : 50\r\n}",
					"options": {
						"raw": {
							"language": "json"
						}
					}
				},
				"url": {
					"raw": "localhost:4001/courses/addCourse",
					"host": [
						"localhost"
					],
					"port": "4001",
					"path": [
						"courses",
						"addCourse"
					]
				}
			},
			"response": []
		},
		{
			"name": "GET getAllcourses (Admin only)",
			"request": {
				"auth": {
					"type": "bearer",
					"bearer": [
						{
							"key": "token",
							"value": "{{AdminToken}}",
							"type": "string"
						}
					]
				},
				"method": "GET",
				"header": [],
				"url": {
					"raw": "localhost:4001/courses",
					"host": [
						"localhost"
					],
					"port": "4001",
					"path": [
						"courses"
					]
				}
			},
			"response": []
		},
		{
			"name": "GET getAllActiveCourses",
			"request": {
				"auth": {
					"type": "bearer",
					"bearer": [
						{
							"key": "token",
							"value": "{{AdminToken}}6479968f394d08e8da8d06e8",
							"type": "string"
						}
					]
				},
				"method": "GET",
				"header": [],
				"url": {
					"raw": "localhost:4001/courses/activeCourses",
					"host": [
						"localhost"
					],
					"port": "4001",
					"path": [
						"courses",
						"activeCourses"
					]
				}
			},
			"response": []
		},
		{
			"name": "GET getCourse",
			"request": {
				"auth": {
					"type": "bearer",
					"bearer": [
						{
							"key": "token",
							"value": "{{AdminToken}}",
							"type": "string"
						}
					]
				},
				"method": "GET",
				"header": [],
				"url": {
					"raw": "localhost:4001/courses/6479968f394d08e8da8d06e8",
					"host": [
						"localhost"
					],
					"port": "4001",
					"path": [
						"courses",
						"6479968f394d08e8da8d06e8"
					]
				}
			},
			"response": []
		},
		{
			"name": "PATCH updateCourse",
			"request": {
				"auth": {
					"type": "bearer",
					"bearer": [
						{
							"key": "token",
							"value": "{{AdminToken}}",
							"type": "string"
						}
					]
				},
				"method": "PATCH",
				"header": [],
				"body": {
					"mode": "raw",
					"raw": "{\r\n    \"name\" : \"Intro to Javascript\",\r\n    \"description\" : \"Intro to JS and advance algo\",\r\n    \"price\" : 9999\r\n}",
					"options": {
						"raw": {
							"language": "json"
						}
					}
				},
				"url": {
					"raw": "localhost:4001/courses/6479968f394d08e8da8d06e8",
					"host": [
						"localhost"
					],
					"port": "4001",
					"path": [
						"courses",
						"6479968f394d08e8da8d06e8"
					]
				}
			},
			"response": []
		},
		{
			"name": "PATCH archiveCourse",
			"request": {
				"auth": {
					"type": "bearer",
					"bearer": [
						{
							"key": "token",
							"value": "{{AdminToken}}",
							"type": "string"
						}
					]
				},
				"method": "PATCH",
				"header": [],
				"body": {
					"mode": "raw",
					"raw": "{\r\n    \"isActive\" : false\r\n}",
					"options": {
						"raw": {
							"language": "json"
						}
					}
				},
				"url": {
					"raw": "localhost:4001/courses/6479968f394d08e8da8d06e8/archive",
					"host": [
						"localhost"
					],
					"port": "4001",
					"path": [
						"courses",
						"6479968f394d08e8da8d06e8",
						"archive"
					]
				}
			},
			"response": []
		}
	],
	"variable": [
		{
			"key": "{{AdminToken}}",
			"value": "eyJhbGciOiJIUzI1NiIsInR5cCI6IkpXVCJ9.eyJpZCI6IjY0Nzk3ZDA0ZjliZWM4NTdkMTM5MmRkYyIsImlzQWRtaW4iOnRydWUsImVtYWlsIjoiYWRtaW5AbWFpbC5jb20iLCJpYXQiOjE2ODU5MjkyNDl9.qBVxefh_t4GtcwheWmBzoz9L38Dn0yEn6COFclwYY04"
		},
		{
			"key": "AdminToken",
			"value": "eyJhbGciOiJIUzI1NiIsInR5cCI6IkpXVCJ9.eyJpZCI6IjY0Nzk3ZDA0ZjliZWM4NTdkMTM5MmRkYyIsImlzQWRtaW4iOnRydWUsImVtYWlsIjoiYWRtaW5AbWFpbC5jb20iLCJpYXQiOjE2ODU5MjkyNDl9.qBVxefh_t4GtcwheWmBzoz9L38Dn0yEn6COFclwYY04"
		}
	]
}