{
	"info": {
		"_postman_id": "f4771ef2-5193-4e03-8b06-2fb6edba0632",
		"name": "s36",
		"schema": "https://schema.getpostman.com/json/collection/v2.1.0/collection.json",
		"_exporter_id": "27193782"
	},
	"item": [
		{
			"name": "discussion",
			"item": [
				{
					"name": "GET all Task",
					"request": {
						"method": "GET",
						"header": []
					},
					"response": []
				},
				{
					"name": "POST addTask",
					"request": {
						"method": "POST",
						"header": []
					},
					"response": []
				},
				{
					"name": "DELETE specific task",
					"request": {
						"method": "DELETE",
						"header": [],
						"url": {
							"raw": "localhost:4000/tasks/6476c9501e5b1aa848996d0a",
							"host": [
								"localhost"
							],
							"port": "4000",
							"path": [
								"tasks",
								"6476c9501e5b1aa848996d0a"
							]
						}
					},
					"response": []
				}
			]
		},
		{
			"name": "activity",
			"item": [
				{
					"name": "GET specific task",
					"request": {
						"method": "GET",
						"header": []
					},
					"response": []
				},
				{
					"name": "PUT change status",
					"request": {
						"method": "PUT",
						"header": [],
						"url": {
							"raw": "localhost:4000/tasks/6476c9501e5b1aa848996d0a/complete",
							"host": [
								"localhost"
							],
							"port": "4000",
							"path": [
								"tasks",
								"6476c9501e5b1aa848996d0a",
								"complete"
							]
						}
					},
					"response": []
				}
			]
		}
	]
}