{
	"transactionId" : 1,
	"courseID" : 1,
	"userId" : 1,
	"isPaid" : true,
	"date" : "05/23/2023",
	"paymentScheme" : "cashG"
}


{
	"transactionId" : 2,
	"courseID" : 2,
	"userId" : 1,
	"isPaid" : false,
	"date" : "05/23/2023",
	"paymentScheme" : "SNPL"
}